{
        "osType":       "ubuntu_3.4.39",
        "blockList":    [{
                        "sensorType":   "CompoundSensor",
                        "blockID":      "BL_S_1"
                }, {
                        "sensorType":   "Relay",
                        "blockID":      "BL_I_1"
                }, {
                        "sensorType":   "CO2Sensor",
                        "blockID":      "BL_S_2"
                }, {
                        "sensorType":   "WiFi",
                        "blockID":      "BL_C_1"
                }]
}

